patient_id;birth_date;sex;location_id
1;19970521;F;2
2;19870204;F;1
3;19561128;F;2
4;19671205;F;3
5;20011228;M;1
6;19501220;F;1
7;19771110;M;1
8;19990821;M;2
9;20050723;M;4
10;19900102;F;5
11;19780529;M;1
12;19911215;F;1
13;19790508;M;1
14;19821009;F;1
15;19871004;M;2
16;19951119;M;3
17;19981213;F;4
18;20100109;F;5
19;20051217;F;3
20;19400621;F;2
21;20001010;F;3
22;19870918;M;1
23;19711230;M;2
24;19671107;M;3
25;19650220;M;4
26;19600321;F;5
27;19800718;F;3
28;19871226;M;2
29;19560325;M;1
30;19800908;F;1
31;19991228;F;4
32;19910207;F;1
33;20000112;M;1
34;19870320;M;1
35;19760201;M;1
36;19651010;F;1
37;19881209;M;1
38;19300108;M;2
39;19731021;F;2
40;19810220;M;3
41;19660217;F;3
42;19900910;F;2
43;19450203;F;1
44;19520204;M;4
45;19400302;F;5
46;19541012;M;5
47;19520104;M;1
48;19651018;F;1
49;19611230;F;1
50;19301220;M;1
